<?xml version="1.0" encoding="UTF-8" standalone="no"?>
<!-- Created with Inkscape (http://www.inkscape.org/) -->

<svg
   width="200.12904mm"
   height="700.034mm"
   viewBox="0 0 200.12904 700.034"
   version="1.1"
   id="svg5"
   inkscape:version="1.2.2 (b0a8486541, 2022-12-01)"
   sodipodi:docname="C4-2-2-G.svg"
   inkscape:export-filename="/home/isabelle/Documents/website/blog/static/img/derby_casebook/C4-2-2-G.png"
   inkscape:export-xdpi="96"
   inkscape:export-ydpi="96"
   xmlns:inkscape="http://www.inkscape.org/namespaces/inkscape"
   xmlns:sodipodi="http://sodipodi.sourceforge.net/DTD/sodipodi-0.dtd"
   xmlns="http://www.w3.org/2000/svg"
   xmlns:svg="http://www.w3.org/2000/svg"
   xmlns:rdf="http://www.w3.org/1999/02/22-rdf-syntax-ns#"
   xmlns:cc="http://creativecommons.org/ns#"
   xmlns:dc="http://purl.org/dc/elements/1.1/">
  <metadata
     id="metadata152">
    <rdf:RDF>
      <cc:Work
         rdf:about="">
        <dc:format>image/svg+xml</dc:format>
        <dc:type
           rdf:resource="http://purl.org/dc/dcmitype/StillImage" />
        <dc:title />
      </cc:Work>
    </rdf:RDF>
  </metadata>
  <sodipodi:namedview
     id="namedview7"
     pagecolor="#ffffff"
     bordercolor="#000000"
     borderopacity="0.25"
     inkscape:showpageshadow="2"
     inkscape:pageopacity="0.0"
     inkscape:pagecheckerboard="0"
     inkscape:deskcolor="#d1d1d1"
     inkscape:document-units="mm"
     showgrid="false"
     inkscape:zoom="1.0544998"
     inkscape:cx="49.78664"
     inkscape:cy="2430.5364"
     inkscape:window-width="1920"
     inkscape:window-height="1017"
     inkscape:window-x="1912"
     inkscape:window-y="-8"
     inkscape:window-maximized="1"
     inkscape:current-layer="layer1" />
  <defs
     id="defs2">
    <marker
       inkscape:stockid="Arrow1Mend"
       orient="auto"
       refY="0"
       refX="0"
       id="marker2943"
       style="overflow:visible"
       inkscape:isstock="true">
      <path
         id="path2941"
         d="M 0,0 5,-5 -12.5,0 5,5 Z"
         style="fill:#000000;fill-opacity:1;fill-rule:evenodd;stroke:#000000;stroke-width:1.00000003pt;stroke-opacity:1"
         transform="matrix(-0.4,0,0,-0.4,-4,0)"
         inkscape:connector-curvature="0" />
    </marker>
    <marker
       inkscape:isstock="true"
       style="overflow:visible"
       id="marker2315"
       refX="0"
       refY="0"
       orient="auto"
       inkscape:stockid="Arrow1Mend"
       inkscape:collect="always">
      <path
         transform="matrix(-0.4,0,0,-0.4,-4,0)"
         style="fill:#000000;fill-opacity:1;fill-rule:evenodd;stroke:#000000;stroke-width:1.00000003pt;stroke-opacity:1"
         d="M 0,0 5,-5 -12.5,0 5,5 Z"
         id="path2313"
         inkscape:connector-curvature="0" />
    </marker>
    <marker
       inkscape:stockid="Arrow1Mend"
       orient="auto"
       refY="0"
       refX="0"
       id="Arrow1Mend"
       style="overflow:visible"
       inkscape:isstock="true"
       inkscape:collect="always">
      <path
         id="path1142"
         d="M 0,0 5,-5 -12.5,0 5,5 Z"
         style="fill:#000000;fill-opacity:1;fill-rule:evenodd;stroke:#000000;stroke-width:1.00000003pt;stroke-opacity:1"
         transform="matrix(-0.4,0,0,-0.4,-4,0)"
         inkscape:connector-curvature="0" />
    </marker>
    <marker
       inkscape:stockid="Arrow1Lend"
       orient="auto"
       refY="0"
       refX="0"
       id="Arrow1Lend"
       style="overflow:visible"
       inkscape:isstock="true">
      <path
         id="path1136"
         d="M 0,0 5,-5 -12.5,0 5,5 Z"
         style="fill:#000000;fill-opacity:1;fill-rule:evenodd;stroke:#000000;stroke-width:1.00000003pt;stroke-opacity:1"
         transform="matrix(-0.8,0,0,-0.8,-10,0)"
         inkscape:connector-curvature="0" />
    </marker>
  </defs>
  <g
     inkscape:label="Calque 1"
     inkscape:groupmode="layer"
     id="layer1"
     transform="translate(-9.9354834,50.139484)">
    <g
       id="g3695"
       transform="translate(0,-38.099976)">
      <path
         style="fill:#8f4a00;fill-opacity:0.58173104;stroke:#000000;stroke-width:0.5;stroke-dasharray:none;stroke-opacity:1"
         d="M 111.06452,71.499999 110,14.903226 l 1.95761,-0.705681 2.03433,0.705681 -1.14969,56.61895 z"
         id="path1388"
         sodipodi:nodetypes="cccccc"
         inkscape:connector-curvature="0" />
      <path
         style="fill:#00c579;fill-opacity:1;stroke:#000000;stroke-width:0.5;stroke-dasharray:none;stroke-opacity:1"
         d="m 110.01009,16.295347 -27.100346,-2.178755 -8.85237,5.806961 8.632774,6.178477 27.498722,-1.831603 z"
         id="path2842"
         sodipodi:nodetypes="cccccc"
         inkscape:connector-curvature="0" />
      <text
         xml:space="preserve"
         style="font-size:8.46667px;fill:#000000;fill-opacity:1;stroke:#000000;stroke-width:0.499999;stroke-dasharray:none;stroke-opacity:1"
         x="84.263527"
         y="22.72139"
         id="text2898"><tspan
           sodipodi:role="line"
           id="tspan2896"
           style="font-style:normal;font-variant:normal;font-weight:normal;font-stretch:normal;font-size:8.46667px;font-family:Calibri;-inkscape-font-specification:Calibri;fill:#000000;fill-opacity:1;stroke-width:0.5"
           x="84.263527"
           y="22.72139">DERBY</tspan></text>
    </g>
    <path
       style="fill:#000000;fill-opacity:1;stroke:#00130f;stroke-width:0.5;stroke-dasharray:1.5, 1.5;stroke-dashoffset:0;stroke-opacity:1"
       d="M 10.084994,107.77363 H 210.21403"
       id="path11050"
       inkscape:connector-curvature="0" />
    <path
       style="fill:#000000;fill-opacity:1;stroke:#00130f;stroke-width:0.5;stroke-dasharray:1.5, 1.5;stroke-dashoffset:0;stroke-opacity:1"
       d="M 10.084994,224.08769 H 210.21403"
       id="path11050-5"
       inkscape:connector-curvature="0" />
    <path
       style="fill:#000000;fill-opacity:1;stroke:#00130f;stroke-width:0.5;stroke-dasharray:1.5, 1.5;stroke-dashoffset:0;stroke-opacity:1"
       d="M 10.084993,333.07262 H 210.21403"
       id="path11050-0"
       inkscape:connector-curvature="0" />
    <path
       style="fill:#000000;fill-opacity:1;stroke:#00130f;stroke-width:0.5;stroke-dasharray:1.5, 1.5;stroke-dashoffset:0;stroke-opacity:1"
       d="M 10.084994,440.97474 H 210.21403"
       id="path11050-8"
       inkscape:connector-curvature="0" />
    <text
       xml:space="preserve"
       style="font-style:normal;font-variant:normal;font-weight:normal;font-stretch:normal;font-size:6.35px;font-family:Calibri;-inkscape-font-specification:Calibri;white-space:pre;display:inline;fill:#001300;fill-opacity:1;stroke:none;stroke-width:1;stroke-dasharray:none;stroke-dashoffset:0;stroke-opacity:1"
       x="27.46344"
       y="6.410881"
       id="text17607" />
    <text
       xml:space="preserve"
       style="font-style:normal;font-variant:normal;font-weight:normal;font-stretch:normal;font-size:6.35px;line-height:1.25;font-family:Calibri;-inkscape-font-specification:Calibri;letter-spacing:0px;word-spacing:0px;fill:#000000;fill-opacity:1;stroke:none;stroke-width:0.264583"
       x="28.753647"
       y="1.4486729"
       id="text1079" />
    <flowRoot
       xml:space="preserve"
       id="flowRoot1089"
       style="font-style:normal;font-variant:normal;font-weight:normal;font-stretch:normal;font-size:16px;line-height:1.25;font-family:Andika;-inkscape-font-specification:Andika;letter-spacing:0px;word-spacing:0px;fill:#000000;fill-opacity:1;stroke:none"
       transform="translate(0,-69.849987)"><flowRegion
         id="flowRegion1091"><rect
           id="rect1093"
           width="199.14656"
           height="95.780014"
           x="64.48555"
           y="193.38123" /></flowRegion><flowPara
         id="flowPara1095" /></flowRoot>
    <text
       xml:space="preserve"
       style="font-style:normal;font-variant:normal;font-weight:normal;font-stretch:normal;font-size:6.35px;line-height:1.25;font-family:Calibri;-inkscape-font-specification:Calibri;letter-spacing:0px;word-spacing:0px;fill:#000000;fill-opacity:1;stroke:none;stroke-width:0.264583"
       x="30.760918"
       y="-4.5731339"
       id="text1099" />
    <g
       id="g3931"
       transform="translate(1.3950433,-69.850028)">
      <path
         style="fill:#000000;fill-opacity:0;stroke:#000000;stroke-width:2;stroke-dasharray:none;stroke-opacity:1"
         id="path1187"
         sodipodi:type="arc"
         sodipodi:cx="62.883236"
         sodipodi:cy="-213.1947"
         sodipodi:rx="55.354836"
         sodipodi:ry="55.354836"
         sodipodi:start="1.4672078"
         sodipodi:end="2.179202"
         sodipodi:open="true"
         sodipodi:arc-type="arc"
         d="m 68.607112,-158.1366 a 55.354836,55.354836 0 0 1 -37.362483,-9.63612"
         transform="rotate(145.0587)" />
      <path
         style="fill:#000000;fill-opacity:0;stroke:#000000;stroke-width:2;stroke-dasharray:none;stroke-opacity:1"
         d="M 69.50793,155.43891 H 193.34664"
         id="path1297"
         sodipodi:nodetypes="cc"
         inkscape:connector-curvature="0" />
      <path
         style="fill:#000000;fill-opacity:0;stroke:#000000;stroke-width:2;stroke-dasharray:none;stroke-opacity:1"
         id="path1187-6"
         sodipodi:type="arc"
         sodipodi:cx="62.250885"
         sodipodi:cy="-212.3206"
         sodipodi:rx="106.93397"
         sodipodi:ry="106.93397"
         sodipodi:start="1.7615497"
         sodipodi:end="2.1779809"
         sodipodi:arc-type="arc"
         d="M 41.976348,-107.32624 A 106.93397,106.93397 0 0 1 1.2389042,-124.50027"
         transform="rotate(145.0587)"
         sodipodi:open="true" />
      <path
         style="fill:#000000;fill-opacity:0;stroke:#000000;stroke-width:2;stroke-dasharray:none;stroke-opacity:1"
         d="M 70.241281,102.7669 193.34664,102.7355"
         id="path1297-1"
         sodipodi:nodetypes="cc"
         inkscape:connector-curvature="0" />
      <path
         style="color:#000000;fill:#0013ff;fill-opacity:1;stroke:#00130f;stroke-width:0.1;stroke-dasharray:none;stroke-opacity:1"
         d="m 130.9907,107.56791 c -3.24608,0 -5.89453,2.64649 -5.89453,5.89257 0,3.24608 2.64845,5.89453 5.89453,5.89453 3.24607,0 5.89258,-2.64845 5.89258,-5.89453 0,-3.24608 -2.64651,-5.89257 -5.89258,-5.89257 z m 0,1.5 c 2.43542,0 4.39258,1.95715 4.39258,4.39257 0,2.43542 -1.95716,4.39453 -4.39258,4.39453 -2.43542,0 -4.39453,-1.95911 -4.39453,-4.39453 0,-2.43542 1.95911,-4.39257 4.39453,-4.39257 z"
         id="path7740-6"
         inkscape:connector-curvature="0" />
      <g
         id="g9356"
         transform="translate(14.664761,56.80397)">
        <g
           id="path5966-9"
           style="stroke-width:0.1;stroke-dasharray:none"
           transform="translate(18.065853,-16.811511)">
          <path
             style="color:#000000;fill:#ffffff;fill-opacity:0.58173104;stroke-width:0.1;stroke-dasharray:none"
             d="m 103.12354,103.62536 a 5.1436315,5.1436315 0 0 1 -5.143628,5.14363 5.1436315,5.1436315 0 0 1 -5.143632,-5.14363 5.1436315,5.1436315 0 0 1 5.143632,-5.143633 5.1436315,5.1436315 0 0 1 5.143628,5.143633 z"
             id="path7738-7"
             inkscape:connector-curvature="0" />
          <path
             style="color:#000000;fill:#0013ff;fill-opacity:1;stroke:#00130f;stroke-width:0.1;stroke-dasharray:none;stroke-opacity:1"
             d="m 97.980469,97.732422 c -3.246076,0 -5.894532,2.646498 -5.894532,5.892578 0,3.24608 2.648456,5.89453 5.894532,5.89453 3.246071,0 5.892581,-2.64845 5.892581,-5.89453 0,-3.24608 -2.64651,-5.892578 -5.892581,-5.892578 z m 0,1.5 c 2.435421,0 4.392581,1.957158 4.392581,4.392578 0,2.43542 -1.95716,4.39453 -4.392581,4.39453 -2.435417,0 -4.394532,-1.95911 -4.394532,-4.39453 0,-2.43542 1.959115,-4.392578 4.394532,-4.392578 z"
             id="path7740-2"
             inkscape:connector-curvature="0" />
        </g>
        <g
           id="path7851"
           style="stroke:#00130f;stroke-width:0.1;stroke-dasharray:none;stroke-opacity:1">
          <path
             style="color:#000000;fill:#0013ff;fill-opacity:1;stroke:#00130f;stroke-width:0.1;stroke-dasharray:none;stroke-opacity:1"
             d="m 116.96852,82.52191 c -0.65594,-0.132015 -1.31925,-0.131336 -1.99609,0.0293 l 0.11517,8.553424 c 0.71007,0.178705 1.3911,0.160102 1.99723,-0.0172 z"
             id="path8181"
             sodipodi:nodetypes="ccccc"
             inkscape:connector-curvature="0" />
        </g>
      </g>
      <g
         id="g9349"
         transform="translate(25.158991,47.501614)">
        <path
           style="color:#000000;fill:#df130f;stroke:#00130f;stroke-width:0.1;stroke-dasharray:none;stroke-opacity:1"
           d="m 132.41813,94.093625 c -3.24607,0 -5.89453,2.6465 -5.89453,5.892579 0,3.246076 2.64846,5.894526 5.89453,5.894526 3.24607,0 5.89258,-2.64845 5.89258,-5.894526 0,-3.246079 -2.64651,-5.892579 -5.89258,-5.892579 z m 0,1.5 c 2.43542,0 4.39258,1.957159 4.39258,4.392579 0,2.435416 -1.95716,4.394526 -4.39258,4.394526 -2.43541,0 -4.39453,-1.95911 -4.39453,-4.394526 0,-2.43542 1.95912,-4.392579 4.39453,-4.392579 z"
           id="path7740-8"
           inkscape:connector-curvature="0" />
        <g
           id="path7851-3"
           style="fill:#ff0000;fill-opacity:1;stroke:#00130f;stroke-width:0.1;stroke-dasharray:none;stroke-opacity:1"
           transform="translate(16.434531,13.172715)">
          <path
             style="color:#000000;fill:#ff0000;fill-opacity:1;stroke:#00130f;stroke-width:0.1;stroke-dasharray:none;stroke-opacity:1"
             d="m 116.96852,82.52191 c -0.65594,-0.132015 -1.31925,-0.131336 -1.99609,0.0293 l 0.11517,8.553424 c 0.71007,0.178705 1.3911,0.160102 1.99723,-0.0172 z"
             id="path8181-9"
             sodipodi:nodetypes="ccccc"
             inkscape:connector-curvature="0" />
        </g>
      </g>
      <g
         id="g11214"
         transform="translate(43.290323,-83.741935)">
        <path
           style="color:#000000;fill:#001300;fill-opacity:1;stroke:#00130f;stroke-width:0.1;stroke-dasharray:none;stroke-opacity:1"
           d="m 120.64614,165.51536 c -3.24608,0 -5.89453,2.64649 -5.89453,5.89257 0,3.24608 2.64845,5.89453 5.89453,5.89453 3.24607,0 5.89258,-2.64845 5.89258,-5.89453 0,-3.24608 -2.64651,-5.89257 -5.89258,-5.89257 z m 0,1.5 c 2.43542,0 4.39258,1.95715 4.39258,4.39257 0,2.43542 -1.95716,4.39453 -4.39258,4.39453 -2.43542,0 -4.39453,-1.95911 -4.39453,-4.39453 0,-2.43542 1.95911,-4.39257 4.39453,-4.39257 z"
           id="path7740-6-14"
           inkscape:connector-curvature="0" />
        <path
           style="fill:#001300;fill-opacity:1;stroke:#00130f;stroke-width:1;stroke-dasharray:none;stroke-dashoffset:0;stroke-opacity:1"
           d="m 117.88902,167.41674 v 7.90363"
           id="path11204"
           inkscape:connector-curvature="0" />
        <path
           style="fill:#001300;fill-opacity:1;stroke:#00130f;stroke-width:1;stroke-dasharray:none;stroke-dashoffset:0;stroke-opacity:1"
           d="m 120.27265,166.47584 v 9.78544"
           id="path11206"
           inkscape:connector-curvature="0" />
        <path
           style="fill:#001300;fill-opacity:1;stroke:#00130f;stroke-width:1;stroke-dasharray:none;stroke-dashoffset:0;stroke-opacity:1"
           d="m 122.93455,166.66402 v 9.47181"
           id="path11208"
           inkscape:connector-curvature="0" />
      </g>
      <flowRoot
         transform="matrix(0.26458333,0,0,0.26458333,7.0535255,79.380865)"
         style="font-style:normal;font-variant:normal;font-weight:normal;font-stretch:normal;font-size:24px;line-height:1.25;font-family:Calibri;-inkscape-font-specification:Calibri;letter-spacing:0px;word-spacing:0px;fill:#000000;fill-opacity:1;stroke:none"
         id="flowRoot1101"
         xml:space="preserve"><flowRegion
           id="flowRegion1103"><rect
             y="152.60359"
             x="63.537235"
             height="134.66101"
             width="243.71747"
             id="rect1105" /></flowRegion><flowPara
           id="flowPara1107">Le·la Pivot Bleu·e et le·la Bloqueur·se Bleu·e sont devant le·la Pivot Rouge.</flowPara></flowRoot>
    </g>
    <g
       id="g3978"
       transform="translate(-5.0653097,-58.266099)">
      <path
         transform="rotate(145.0587)"
         d="m 128.10104,-243.28827 a 55.354836,55.354836 0 0 1 -37.36248,-9.63612"
         sodipodi:arc-type="arc"
         sodipodi:open="true"
         sodipodi:end="2.179202"
         sodipodi:start="1.4672078"
         sodipodi:ry="55.354836"
         sodipodi:rx="55.354836"
         sodipodi:cy="-298.34637"
         sodipodi:cx="122.37717"
         sodipodi:type="arc"
         id="path1187-61"
         style="fill:#000000;fill-opacity:0;stroke:#000000;stroke-width:2;stroke-dasharray:none;stroke-opacity:1" />
      <path
         sodipodi:nodetypes="cc"
         id="path1297-5"
         d="M 69.50794,259.31545 H 193.34665"
         style="fill:#000000;fill-opacity:0;stroke:#000000;stroke-width:2;stroke-dasharray:none;stroke-opacity:1"
         inkscape:connector-curvature="0" />
      <path
         sodipodi:open="true"
         transform="rotate(145.0587)"
         d="M 101.47028,-192.47789 A 106.93397,106.93397 0 0 1 60.732831,-209.65192"
         sodipodi:arc-type="arc"
         sodipodi:end="2.1779809"
         sodipodi:start="1.7615497"
         sodipodi:ry="106.93397"
         sodipodi:rx="106.93397"
         sodipodi:cy="-297.47226"
         sodipodi:cx="121.74481"
         sodipodi:type="arc"
         id="path1187-6-9"
         style="fill:#000000;fill-opacity:0;stroke:#000000;stroke-width:2;stroke-dasharray:none;stroke-opacity:1" />
      <path
         sodipodi:nodetypes="cc"
         id="path1297-1-7"
         d="m 70.241291,206.64344 123.105359,-0.0314"
         style="fill:#000000;fill-opacity:0;stroke:#000000;stroke-width:2;stroke-dasharray:none;stroke-opacity:1"
         inkscape:connector-curvature="0" />
      <text
         id="text9509"
         y="241.04816"
         x="159.1313"
         style="font-style:normal;font-variant:normal;font-weight:normal;font-stretch:normal;font-size:8.46667px;font-family:Calibri;-inkscape-font-specification:Calibri;fill:#000000;fill-opacity:1;stroke:#00130f;stroke-width:0.1;stroke-dasharray:none;stroke-opacity:1"
         xml:space="preserve"><tspan
           y="241.04816"
           x="159.1313"
           style="fill:#000000;fill-opacity:1;stroke-width:0.1"
           id="tspan9507"
           sodipodi:role="line">HIT !</tspan></text>
      <g
         transform="translate(34.064512,26.162281)"
         id="g11214-7">
        <path
           id="path7740-6-14-9"
           d="m 120.64614,165.51536 c -3.24608,0 -5.89453,2.64649 -5.89453,5.89257 0,3.24608 2.64845,5.89453 5.89453,5.89453 3.24607,0 5.89258,-2.64845 5.89258,-5.89453 0,-3.24608 -2.64651,-5.89257 -5.89258,-5.89257 z m 0,1.5 c 2.43542,0 4.39258,1.95715 4.39258,4.39257 0,2.43542 -1.95716,4.39453 -4.39258,4.39453 -2.43542,0 -4.39453,-1.95911 -4.39453,-4.39453 0,-2.43542 1.95911,-4.39257 4.39453,-4.39257 z"
           style="color:#000000;fill:#001300;fill-opacity:1;stroke:#00130f;stroke-width:0.1;stroke-dasharray:none;stroke-opacity:1"
           inkscape:connector-curvature="0" />
        <path
           id="path11204-1"
           d="m 117.88902,167.41674 v 7.90363"
           style="fill:#001300;fill-opacity:1;stroke:#00130f;stroke-width:1;stroke-dasharray:none;stroke-dashoffset:0;stroke-opacity:1"
           inkscape:connector-curvature="0" />
        <path
           id="path11206-7"
           d="m 120.27265,166.47584 v 9.78544"
           style="fill:#001300;fill-opacity:1;stroke:#00130f;stroke-width:1;stroke-dasharray:none;stroke-dashoffset:0;stroke-opacity:1"
           inkscape:connector-curvature="0" />
        <path
           id="path11208-3"
           d="m 122.93455,166.66402 v 9.47181"
           style="fill:#001300;fill-opacity:1;stroke:#00130f;stroke-width:1;stroke-dasharray:none;stroke-dashoffset:0;stroke-opacity:1"
           inkscape:connector-curvature="0" />
      </g>
      <g
         id="g947"
         transform="translate(-70.931423,121.32165)">
        <g
           id="g941">
          <text
             inkscape:export-ydpi="98.57"
             inkscape:export-xdpi="98.57"
             inkscape:export-filename="/home/isabelle/Documents/website/blog/static/img/derby_casebook/legende.png"
             id="text11687-3"
             y="68.741096"
             x="179.843"
             style="font-style:normal;font-variant:normal;font-weight:normal;font-stretch:normal;font-size:8.46667px;font-family:Calibri;-inkscape-font-specification:Calibri;fill:#431300;fill-opacity:1;stroke:#00000f;stroke-width:1;stroke-dasharray:none;stroke-dashoffset:0;stroke-opacity:1"
             xml:space="preserve"><tspan
               y="68.741096"
               x="179.843"
               style="fill:#431300;fill-opacity:1;stroke:#00000f;stroke-width:1;stroke-opacity:1"
               id="tspan11685-6"
               sodipodi:role="line">TWEET</tspan></text>
        </g>
        <path
           style="fill:#431300;fill-opacity:0;stroke:#00000f;stroke-width:1;stroke-dasharray:none;stroke-dashoffset:0;stroke-opacity:1"
           d="m 175.32695,61.464763 3.26182,-6.52362 5.26908,5.26907 10.53817,-5.52 9.28363,5.01819 11.2909,-1.50545 -6.77454,7.77816 10.52097,7.498365 -14.03369,-2.731095 -1.25455,5.26909 -9.28362,-2.76 -15.30544,4.26546 -2.00727,-7.52727 -7.61209,-4.190446 z"
           id="path14287-7"
           sodipodi:nodetypes="ccccccccccccccc"
           inkscape:export-filename="/home/isabelle/Documents/website/blog/static/img/derby_casebook/legende.png"
           inkscape:export-xdpi="98.57"
           inkscape:export-ydpi="98.57"
           inkscape:connector-curvature="0" />
      </g>
      <g
         transform="translate(-7.4122568,112.05401)"
         id="g1041">
        <g
           id="g941-3"
           transform="translate(-4.0433858,4.193152)">
          <text
             inkscape:export-ydpi="98.57"
             inkscape:export-xdpi="98.57"
             inkscape:export-filename="/home/isabelle/Documents/website/blog/static/img/derby_casebook/legende.png"
             id="text11687-3-5"
             y="68.741096"
             x="181.43048"
             style="font-style:normal;font-variant:normal;font-weight:normal;font-stretch:normal;font-size:8.46667px;font-family:Calibri;-inkscape-font-specification:Calibri;fill:#001300;fill-opacity:1;stroke:#00000f;stroke-width:1;stroke-dasharray:none;stroke-dashoffset:0;stroke-opacity:1"
             xml:space="preserve"><tspan
               id="tspan1023"
               y="68.741096"
               x="181.43048"
               style="font-size:5.64444px;fill:#001300;fill-opacity:1;stroke:none;stroke-width:1;stroke-opacity:1"
               sodipodi:role="line">Blue pivot</tspan></text>
        </g>
        <path
           style="fill:#431300;fill-opacity:0;stroke:#00000f;stroke-width:1;stroke-dasharray:none;stroke-dashoffset:0;stroke-opacity:1"
           d="m 172.78902,69.296093 3.26182,-6.52362 5.26908,5.26907 10.53817,-5.52 9.28363,5.01819 11.2909,-1.50545 -6.77454,7.77816 1.99007,4.738367 -5.50279,0.0289 -1.25455,5.26909 -9.28362,-2.76 -21.07634,1.630917 3.76363,-4.892727 -7.61209,-4.190446 z"
           id="path14287-7-2"
           sodipodi:nodetypes="ccccccccccccccc"
           inkscape:export-filename="/home/isabelle/Documents/website/blog/static/img/derby_casebook/legende.png"
           inkscape:export-xdpi="98.57"
           inkscape:export-ydpi="98.57"
           inkscape:connector-curvature="0" />
        <text
           xml:space="preserve"
           style="font-style:normal;font-variant:normal;font-weight:normal;font-stretch:normal;font-size:4.23333px;line-height:1.25;font-family:Andika;-inkscape-font-specification:Andika;letter-spacing:0px;word-spacing:0px;fill:#000000;fill-opacity:1;stroke:none;stroke-width:0.264583"
           x="175.78622"
           y="76.818695"
           id="text1029"><tspan
             sodipodi:role="line"
             id="tspan1027"
             x="175.78622"
             y="76.818695"
             style="stroke-width:0.264583">illegal contact</tspan></text>
      </g>
      <flowRoot
         transform="matrix(0.26458333,0,0,0.26458333,7.8064511,112.34372)"
         style="font-style:normal;font-variant:normal;font-weight:normal;font-stretch:normal;font-size:16px;line-height:1.25;font-family:Andika;-inkscape-font-specification:Andika;letter-spacing:0px;word-spacing:0px;fill:#000000;fill-opacity:1;stroke:none"
         id="flowRoot1067"
         xml:space="preserve"><flowRegion
           id="flowRegion1069"><rect
             y="405.80423"
             x="60.692284"
             height="153.3298"
             width="269.08374"
             id="rect1071" /></flowRegion><flowPara
           style="font-style:normal;font-variant:normal;font-weight:normal;font-stretch:normal;font-size:24px;font-family:Calibri;-inkscape-font-specification:Calibri"
           id="flowPara1075">Le·la Pivot Rouge est sorti·e de la piste illégalement par le·la Pivot Bleu·e, qui reçoit une pénalité.</flowPara></flowRoot>
      <path
         style="color:#000000;fill:#0013ff;fill-opacity:1;stroke:#00130f;stroke-width:0.1;stroke-dasharray:none;stroke-opacity:1"
         d="m 133.68942,210.22769 c -3.24608,0 -5.89453,2.64649 -5.89453,5.89257 0,3.24608 2.64845,5.89453 5.89453,5.89453 3.24607,0 5.89258,-2.64845 5.89258,-5.89453 0,-3.24608 -2.64651,-5.89257 -5.89258,-5.89257 z m 0,1.5 c 2.43542,0 4.39258,1.95715 4.39258,4.39257 0,2.43542 -1.95716,4.39453 -4.39258,4.39453 -2.43542,0 -4.39453,-1.95911 -4.39453,-4.39453 0,-2.43542 1.95911,-4.39257 4.39453,-4.39257 z"
         id="path7740-6-9"
         inkscape:connector-curvature="0" />
      <g
         id="g9356-2"
         transform="translate(34.927134,155.70012)">
        <g
           id="path5966-9-8"
           style="stroke-width:0.1;stroke-dasharray:none"
           transform="translate(18.065853,-16.811511)">
          <path
             style="color:#000000;fill:#ffffff;fill-opacity:0.58173104;stroke-width:0.1;stroke-dasharray:none"
             d="m 103.12354,103.62536 a 5.1436315,5.1436315 0 0 1 -5.143628,5.14363 5.1436315,5.1436315 0 0 1 -5.143632,-5.14363 5.1436315,5.1436315 0 0 1 5.143632,-5.143633 5.1436315,5.1436315 0 0 1 5.143628,5.143633 z"
             id="path7738-7-8"
             inkscape:connector-curvature="0" />
          <path
             style="color:#000000;fill:#0013ff;fill-opacity:1;stroke:#00130f;stroke-width:0.1;stroke-dasharray:none;stroke-opacity:1"
             d="m 97.980469,97.732422 c -3.246076,0 -5.894532,2.646498 -5.894532,5.892578 0,3.24608 2.648456,5.89453 5.894532,5.89453 3.246071,0 5.892581,-2.64845 5.892581,-5.89453 0,-3.24608 -2.64651,-5.892578 -5.892581,-5.892578 z m 0,1.5 c 2.435421,0 4.392581,1.957158 4.392581,4.392578 0,2.43542 -1.95716,4.39453 -4.392581,4.39453 -2.435417,0 -4.394532,-1.95911 -4.394532,-4.39453 0,-2.43542 1.959115,-4.392578 4.394532,-4.392578 z"
             id="path7740-2-8"
             inkscape:connector-curvature="0" />
        </g>
        <g
           id="path7851-68"
           style="stroke:#00130f;stroke-width:0.1;stroke-dasharray:none;stroke-opacity:1">
          <path
             style="color:#000000;fill:#0013ff;fill-opacity:1;stroke:#00130f;stroke-width:0.1;stroke-dasharray:none;stroke-opacity:1"
             d="m 116.96852,82.52191 c -0.65594,-0.132015 -1.31925,-0.131336 -1.99609,0.0293 l 0.11517,8.553424 c 0.71007,0.178705 1.3911,0.160102 1.99723,-0.0172 z"
             id="path8181-3"
             sodipodi:nodetypes="ccccc"
             inkscape:connector-curvature="0" />
        </g>
      </g>
      <g
         id="g9349-8"
         transform="translate(27.85774,150.16139)">
        <path
           style="color:#000000;fill:#df130f;stroke:#00130f;stroke-width:0.1;stroke-dasharray:none;stroke-opacity:1"
           d="m 132.41813,94.093625 c -3.24607,0 -5.89453,2.6465 -5.89453,5.892579 0,3.246076 2.64846,5.894526 5.89453,5.894526 3.24607,0 5.89258,-2.64845 5.89258,-5.894526 0,-3.246079 -2.64651,-5.892579 -5.89258,-5.892579 z m 0,1.5 c 2.43542,0 4.39258,1.957159 4.39258,4.392579 0,2.435416 -1.95716,4.394526 -4.39258,4.394526 -2.43541,0 -4.39453,-1.95911 -4.39453,-4.394526 0,-2.43542 1.95912,-4.392579 4.39453,-4.392579 z"
           id="path7740-8-3"
           inkscape:connector-curvature="0" />
        <g
           id="path7851-3-3"
           style="fill:#ff0000;fill-opacity:1;stroke:#00130f;stroke-width:0.1;stroke-dasharray:none;stroke-opacity:1"
           transform="translate(16.434531,13.172715)">
          <path
             style="color:#000000;fill:#ff0000;fill-opacity:1;stroke:#00130f;stroke-width:0.1;stroke-dasharray:none;stroke-opacity:1"
             d="m 116.96852,82.52191 c -0.65594,-0.132015 -1.31925,-0.131336 -1.99609,0.0293 l 0.11517,8.553424 c 0.71007,0.178705 1.3911,0.160102 1.99723,-0.0172 z"
             id="path8181-9-3"
             sodipodi:nodetypes="ccccc"
             inkscape:connector-curvature="0" />
        </g>
      </g>
      <path
         sodipodi:nodetypes="cc"
         inkscape:connector-curvature="0"
         id="path1131"
         d="m 160.40132,250.51831 6.3871,22"
         style="fill:none;stroke:#000000;stroke-width:1;stroke-linecap:butt;stroke-linejoin:miter;stroke-miterlimit:4;stroke-dasharray:none;stroke-opacity:1;marker-end:url(#Arrow1Mend)" />
    </g>
    <g
       id="g4005"
       transform="translate(1.3949983,-61.190918)">
      <path
         transform="rotate(145.0587)"
         d="m 191.09868,-333.45456 a 55.354836,55.354836 0 0 1 -37.36249,-9.63612"
         sodipodi:arc-type="arc"
         sodipodi:open="true"
         sodipodi:end="2.179202"
         sodipodi:start="1.4672078"
         sodipodi:ry="55.354836"
         sodipodi:rx="55.354836"
         sodipodi:cy="-388.51266"
         sodipodi:cx="185.3748"
         sodipodi:type="arc"
         id="path1187-61-1"
         style="fill:#000000;fill-opacity:0;stroke:#000000;stroke-width:2;stroke-dasharray:none;stroke-opacity:1" />
      <path
         inkscape:connector-curvature="0"
         sodipodi:nodetypes="cc"
         id="path1297-5-1"
         d="M 69.507978,369.30941 H 193.34673"
         style="fill:#000000;fill-opacity:0;stroke:#000000;stroke-width:2;stroke-dasharray:none;stroke-opacity:1" />
      <path
         sodipodi:open="true"
         transform="rotate(145.0587)"
         d="m 164.46791,-282.64419 a 106.93397,106.93397 0 0 1 -40.73744,-17.17402"
         sodipodi:arc-type="arc"
         sodipodi:end="2.1779809"
         sodipodi:start="1.7615497"
         sodipodi:ry="106.93397"
         sodipodi:rx="106.93397"
         sodipodi:cy="-387.63855"
         sodipodi:cx="184.74245"
         sodipodi:type="arc"
         id="path1187-6-9-9"
         style="fill:#000000;fill-opacity:0;stroke:#000000;stroke-width:2;stroke-dasharray:none;stroke-opacity:1" />
      <path
         inkscape:connector-curvature="0"
         sodipodi:nodetypes="cc"
         id="path1297-1-7-9"
         d="M 70.241329,316.6374 193.34673,316.606"
         style="fill:#000000;fill-opacity:0;stroke:#000000;stroke-width:2;stroke-dasharray:none;stroke-opacity:1" />
      <path
         style="color:#000000;fill:#0013ff;fill-opacity:1;stroke:#00130f;stroke-width:0.1;stroke-dasharray:none;stroke-opacity:1"
         d="m 138.66303,324.14709 c -3.24608,0 -5.89452,2.64649 -5.89452,5.89257 0,3.24608 2.64844,5.89453 5.89452,5.89453 3.24607,0 5.89259,-2.64845 5.89259,-5.89453 0,-3.24608 -2.64652,-5.89257 -5.89259,-5.89257 z m 0,1.5 c 2.43542,0 4.39259,1.95715 4.39259,4.39257 0,2.43542 -1.95717,4.39453 -4.39259,4.39453 -2.43542,0 -4.39453,-1.95911 -4.39453,-4.39453 0,-2.43542 1.95911,-4.39257 4.39453,-4.39257 z"
         id="path7740-6-6"
         inkscape:connector-curvature="0" />
      <g
         id="g9356-9"
         transform="translate(39.900665,269.61952)">
        <g
           id="path5966-9-4"
           style="stroke-width:0.1;stroke-dasharray:none"
           transform="translate(18.065853,-16.811511)">
          <path
             style="color:#000000;fill:#ffffff;fill-opacity:0.58173104;stroke-width:0.1;stroke-dasharray:none"
             d="m 103.12354,103.62536 a 5.1436315,5.1436315 0 0 1 -5.143628,5.14363 5.1436315,5.1436315 0 0 1 -5.143632,-5.14363 5.1436315,5.1436315 0 0 1 5.143632,-5.143633 5.1436315,5.1436315 0 0 1 5.143628,5.143633 z"
             id="path7738-7-2"
             inkscape:connector-curvature="0" />
          <path
             style="color:#000000;fill:#0013ff;fill-opacity:1;stroke:#00130f;stroke-width:0.1;stroke-dasharray:none;stroke-opacity:1"
             d="m 97.980469,97.732422 c -3.246076,0 -5.894532,2.646498 -5.894532,5.892578 0,3.24608 2.648456,5.89453 5.894532,5.89453 3.246071,0 5.892581,-2.64845 5.892581,-5.89453 0,-3.24608 -2.64651,-5.892578 -5.892581,-5.892578 z m 0,1.5 c 2.435421,0 4.392581,1.957158 4.392581,4.392578 0,2.43542 -1.95716,4.39453 -4.392581,4.39453 -2.435417,0 -4.394532,-1.95911 -4.394532,-4.39453 0,-2.43542 1.959115,-4.392578 4.394532,-4.392578 z"
             id="path7740-2-2"
             inkscape:connector-curvature="0" />
        </g>
        <g
           id="path7851-6"
           style="stroke:#00130f;stroke-width:0.1;stroke-dasharray:none;stroke-opacity:1">
          <path
             style="color:#000000;fill:#0013ff;fill-opacity:1;stroke:#00130f;stroke-width:0.1;stroke-dasharray:none;stroke-opacity:1"
             d="m 116.96852,82.52191 c -0.65594,-0.132015 -1.31925,-0.131336 -1.99609,0.0293 l 0.11517,8.553424 c 0.71007,0.178705 1.3911,0.160102 1.99723,-0.0172 z"
             id="path8181-4"
             sodipodi:nodetypes="ccccc"
             inkscape:connector-curvature="0" />
        </g>
      </g>
      <g
         id="g9349-1"
         transform="translate(39.103992,280.38987)">
        <path
           style="color:#000000;fill:#df130f;stroke:#00130f;stroke-width:0.1;stroke-dasharray:none;stroke-opacity:1"
           d="m 132.41813,94.093625 c -3.24607,0 -5.89453,2.6465 -5.89453,5.892579 0,3.246076 2.64846,5.894526 5.89453,5.894526 3.24607,0 5.89258,-2.64845 5.89258,-5.894526 0,-3.246079 -2.64651,-5.892579 -5.89258,-5.892579 z m 0,1.5 c 2.43542,0 4.39258,1.957159 4.39258,4.392579 0,2.435416 -1.95716,4.394526 -4.39258,4.394526 -2.43541,0 -4.39453,-1.95911 -4.39453,-4.394526 0,-2.43542 1.95912,-4.392579 4.39453,-4.392579 z"
           id="path7740-8-2"
           inkscape:connector-curvature="0" />
        <g
           id="path7851-3-8"
           style="fill:#ff0000;fill-opacity:1;stroke:#00130f;stroke-width:0.1;stroke-dasharray:none;stroke-opacity:1"
           transform="translate(16.434531,13.172715)">
          <path
             style="color:#000000;fill:#ff0000;fill-opacity:1;stroke:#00130f;stroke-width:0.1;stroke-dasharray:none;stroke-opacity:1"
             d="m 116.96852,82.52191 c -0.65594,-0.132015 -1.31925,-0.131336 -1.99609,0.0293 l 0.11517,8.553424 c 0.71007,0.178705 1.3911,0.160102 1.99723,-0.0172 z"
             id="path8181-9-8"
             sodipodi:nodetypes="ccccc"
             inkscape:connector-curvature="0" />
        </g>
      </g>
      <flowRoot
         transform="matrix(0.26458333,0,0,0.26458333,6.0499692,128.35905)"
         style="font-style:normal;font-variant:normal;font-weight:normal;font-stretch:normal;font-size:24px;line-height:1.25;font-family:Calibri;-inkscape-font-specification:Calibri;letter-spacing:0px;word-spacing:0px;fill:#000000;fill-opacity:1;stroke:none"
         id="flowRoot1600"
         xml:space="preserve"><flowRegion
           id="flowRegion1602"><rect
             y="795.5625"
             x="67.330505"
             height="99.573296"
             width="223.8028"
             id="rect1604" /></flowRegion><flowPara
           id="flowPara1606">Le·la Pivot Bleu·e quitte la piste</flowPara></flowRoot>
      <path
         inkscape:connector-curvature="0"
         id="path2305"
         d="M 156.18035,357.20933 137.61309,295.1094"
         style="fill:none;stroke:#000000;stroke-width:1;stroke-linecap:butt;stroke-linejoin:miter;stroke-miterlimit:4;stroke-dasharray:none;stroke-opacity:1;marker-end:url(#marker2315)" />
      <g
         transform="translate(33.562912,136.99866)"
         id="g11214-7-7">
        <path
           id="path7740-6-14-9-9"
           d="m 120.64614,165.51536 c -3.24608,0 -5.89453,2.64649 -5.89453,5.89257 0,3.24608 2.64845,5.89453 5.89453,5.89453 3.24607,0 5.89258,-2.64845 5.89258,-5.89453 0,-3.24608 -2.64651,-5.89257 -5.89258,-5.89257 z m 0,1.5 c 2.43542,0 4.39258,1.95715 4.39258,4.39257 0,2.43542 -1.95716,4.39453 -4.39258,4.39453 -2.43542,0 -4.39453,-1.95911 -4.39453,-4.39453 0,-2.43542 1.95911,-4.39257 4.39453,-4.39257 z"
           style="color:#000000;fill:#001300;fill-opacity:1;stroke:#00130f;stroke-width:0.1;stroke-dasharray:none;stroke-opacity:1"
           inkscape:connector-curvature="0" />
        <path
           id="path11204-1-0"
           d="m 117.88902,167.41674 v 7.90363"
           style="fill:#001300;fill-opacity:1;stroke:#00130f;stroke-width:1;stroke-dasharray:none;stroke-dashoffset:0;stroke-opacity:1"
           inkscape:connector-curvature="0" />
        <path
           id="path11206-7-3"
           d="m 120.27265,166.47584 v 9.78544"
           style="fill:#001300;fill-opacity:1;stroke:#00130f;stroke-width:1;stroke-dasharray:none;stroke-dashoffset:0;stroke-opacity:1"
           inkscape:connector-curvature="0" />
        <path
           id="path11208-3-3"
           d="m 122.93455,166.66402 v 9.47181"
           style="fill:#001300;fill-opacity:1;stroke:#00130f;stroke-width:1;stroke-dasharray:none;stroke-dashoffset:0;stroke-opacity:1"
           inkscape:connector-curvature="0" />
      </g>
    </g>
    <g
       id="g4042"
       transform="translate(1.3949933,-64.482779)">
      <path
         transform="rotate(145.0587)"
         d="m 254.24776,-423.83771 a 55.354836,55.354836 0 0 1 -37.36249,-9.63612"
         sodipodi:arc-type="arc"
         sodipodi:open="true"
         sodipodi:end="2.179202"
         sodipodi:start="1.4672078"
         sodipodi:ry="55.354836"
         sodipodi:rx="55.354836"
         sodipodi:cy="-478.89581"
         sodipodi:cx="248.52388"
         sodipodi:type="arc"
         id="path1187-61-1-2"
         style="fill:#000000;fill-opacity:0;stroke:#000000;stroke-width:2;stroke-dasharray:none;stroke-opacity:1" />
      <path
         inkscape:connector-curvature="0"
         sodipodi:nodetypes="cc"
         id="path1297-5-1-7"
         d="M 69.507979,479.56784 H 193.34674"
         style="fill:#000000;fill-opacity:0;stroke:#000000;stroke-width:2;stroke-dasharray:none;stroke-opacity:1" />
      <path
         sodipodi:open="true"
         transform="rotate(145.0587)"
         d="m 227.61699,-373.02733 a 106.93397,106.93397 0 0 1 -40.73745,-17.17403"
         sodipodi:arc-type="arc"
         sodipodi:end="2.1779809"
         sodipodi:start="1.7615497"
         sodipodi:ry="106.93397"
         sodipodi:rx="106.93397"
         sodipodi:cy="-478.0217"
         sodipodi:cx="247.89153"
         sodipodi:type="arc"
         id="path1187-6-9-9-2"
         style="fill:#000000;fill-opacity:0;stroke:#000000;stroke-width:2;stroke-dasharray:none;stroke-opacity:1" />
      <path
         inkscape:connector-curvature="0"
         sodipodi:nodetypes="cc"
         id="path1297-1-7-9-8"
         d="m 70.24133,426.89583 123.10541,-0.0314"
         style="fill:#000000;fill-opacity:0;stroke:#000000;stroke-width:2;stroke-dasharray:none;stroke-opacity:1" />
      <g
         id="g11214-3"
         transform="translate(38.831998,240.03273)">
        <path
           style="color:#000000;fill:#001300;fill-opacity:1;stroke:#00130f;stroke-width:0.1;stroke-dasharray:none;stroke-opacity:1"
           d="m 120.64614,165.51536 c -3.24608,0 -5.89453,2.64649 -5.89453,5.89257 0,3.24608 2.64845,5.89453 5.89453,5.89453 3.24607,0 5.89258,-2.64845 5.89258,-5.89453 0,-3.24608 -2.64651,-5.89257 -5.89258,-5.89257 z m 0,1.5 c 2.43542,0 4.39258,1.95715 4.39258,4.39257 0,2.43542 -1.95716,4.39453 -4.39258,4.39453 -2.43542,0 -4.39453,-1.95911 -4.39453,-4.39453 0,-2.43542 1.95911,-4.39257 4.39453,-4.39257 z"
           id="path7740-6-14-01"
           inkscape:connector-curvature="0" />
        <path
           style="fill:#001300;fill-opacity:1;stroke:#00130f;stroke-width:1;stroke-dasharray:none;stroke-dashoffset:0;stroke-opacity:1"
           d="m 117.88902,167.41674 v 7.90363"
           id="path11204-4"
           inkscape:connector-curvature="0" />
        <path
           style="fill:#001300;fill-opacity:1;stroke:#00130f;stroke-width:1;stroke-dasharray:none;stroke-dashoffset:0;stroke-opacity:1"
           d="m 120.27265,166.47584 v 9.78544"
           id="path11206-73"
           inkscape:connector-curvature="0" />
        <path
           style="fill:#001300;fill-opacity:1;stroke:#00130f;stroke-width:1;stroke-dasharray:none;stroke-dashoffset:0;stroke-opacity:1"
           d="m 122.93455,166.66402 v 9.47181"
           id="path11208-1"
           inkscape:connector-curvature="0" />
      </g>
      <g
         id="g9349-1-8"
         transform="translate(38.801548,391.58385)">
        <path
           style="color:#000000;fill:#df130f;stroke:#00130f;stroke-width:0.1;stroke-dasharray:none;stroke-opacity:1"
           d="m 132.41813,94.093625 c -3.24607,0 -5.89453,2.6465 -5.89453,5.892579 0,3.246076 2.64846,5.894526 5.89453,5.894526 3.24607,0 5.89258,-2.64845 5.89258,-5.894526 0,-3.246079 -2.64651,-5.892579 -5.89258,-5.892579 z m 0,1.5 c 2.43542,0 4.39258,1.957159 4.39258,4.392579 0,2.435416 -1.95716,4.394526 -4.39258,4.394526 -2.43541,0 -4.39453,-1.95911 -4.39453,-4.394526 0,-2.43542 1.95912,-4.392579 4.39453,-4.392579 z"
           id="path7740-8-2-0"
           inkscape:connector-curvature="0" />
        <g
           id="path7851-3-8-4"
           style="fill:#ff0000;fill-opacity:1;stroke:#00130f;stroke-width:0.1;stroke-dasharray:none;stroke-opacity:1"
           transform="translate(16.434531,13.172715)">
          <path
             style="color:#000000;fill:#ff0000;fill-opacity:1;stroke:#00130f;stroke-width:0.1;stroke-dasharray:none;stroke-opacity:1"
             d="m 116.96852,82.52191 c -0.65594,-0.132015 -1.31925,-0.131336 -1.99609,0.0293 l 0.11517,8.553424 c 0.71007,0.178705 1.3911,0.160102 1.99723,-0.0172 z"
             id="path8181-9-8-7"
             sodipodi:nodetypes="ccccc"
             inkscape:connector-curvature="0" />
        </g>
      </g>
      <g
         inkscape:export-ydpi="98.57"
         inkscape:export-xdpi="98.57"
         inkscape:export-filename="/home/isabelle/Documents/website/blog/static/img/derby_casebook/legende.png"
         transform="translate(45.033488,338.52123)"
         style="fill:#0000ff;fill-opacity:1;stroke:#000000;stroke-width:0.1;stroke-dasharray:none;stroke-opacity:1"
         id="path5966-47">
        <path
           sodipodi:nodetypes="sssss"
           id="path7740-5"
           d="m 97.980469,97.732422 c -3.246076,0 -5.894532,2.646498 -5.894532,5.892578 0,3.24608 2.648456,5.89453 5.894532,5.89453 3.246071,0 5.892581,-2.64845 5.892581,-5.89453 0,-3.24608 -2.64651,-5.892578 -5.892581,-5.892578 z"
           style="color:#000000;fill:#0000ff;fill-opacity:1;stroke:#000000;stroke-width:0.1;stroke-dasharray:none;stroke-opacity:1"
           inkscape:connector-curvature="0" />
      </g>
      <g
         id="g9356-9-6"
         transform="translate(36.550443,347.78854)">
        <g
           id="path5966-9-4-8"
           style="stroke-width:0.1;stroke-dasharray:none"
           transform="translate(18.065853,-16.811511)">
          <path
             style="color:#000000;fill:#ffffff;fill-opacity:0.58173104;stroke-width:0.1;stroke-dasharray:none"
             d="m 103.12354,103.62536 a 5.1436315,5.1436315 0 0 1 -5.143628,5.14363 5.1436315,5.1436315 0 0 1 -5.143632,-5.14363 5.1436315,5.1436315 0 0 1 5.143632,-5.143633 5.1436315,5.1436315 0 0 1 5.143628,5.143633 z"
             id="path7738-7-2-9"
             inkscape:connector-curvature="0" />
          <path
             style="color:#000000;fill:#0013ff;fill-opacity:1;stroke:#00130f;stroke-width:0.1;stroke-dasharray:none;stroke-opacity:1"
             d="m 97.980469,97.732422 c -3.246076,0 -5.894532,2.646498 -5.894532,5.892578 0,3.24608 2.648456,5.89453 5.894532,5.89453 3.246071,0 5.892581,-2.64845 5.892581,-5.89453 0,-3.24608 -2.64651,-5.892578 -5.892581,-5.892578 z m 0,1.5 c 2.435421,0 4.392581,1.957158 4.392581,4.392578 0,2.43542 -1.95716,4.39453 -4.392581,4.39453 -2.435417,0 -4.394532,-1.95911 -4.394532,-4.39453 0,-2.43542 1.959115,-4.392578 4.394532,-4.392578 z"
             id="path7740-2-2-0"
             inkscape:connector-curvature="0" />
        </g>
        <g
           id="path7851-6-6"
           style="stroke:#00130f;stroke-width:0.1;stroke-dasharray:none;stroke-opacity:1">
          <path
             style="color:#000000;fill:#0013ff;fill-opacity:1;stroke:#00130f;stroke-width:0.1;stroke-dasharray:none;stroke-opacity:1"
             d="m 116.96852,82.52191 c -0.65594,-0.132015 -1.31925,-0.131336 -1.99609,0.0293 l 0.11517,8.553424 c 0.71007,0.178705 1.3911,0.160102 1.99723,-0.0172 z"
             id="path8181-4-8"
             sodipodi:nodetypes="ccccc"
             inkscape:connector-curvature="0" />
        </g>
      </g>
      <flowRoot
         transform="matrix(0.26458333,0,0,0.26458333,0.57640155,12.355072)"
         style="font-style:normal;font-variant:normal;font-weight:normal;font-stretch:normal;font-size:24px;line-height:1.25;font-family:Calibri;-inkscape-font-specification:Calibri;letter-spacing:0px;word-spacing:0px;fill:#000000;fill-opacity:1;stroke:none"
         id="flowRoot2479"
         xml:space="preserve"><flowRegion
           id="flowRegion2481"><rect
             y="1613.96"
             x="89.141792"
             height="178.28354"
             width="293.02991"
             id="rect2483" /></flowRegion><flowPara
           id="flowPara2487"> En quittant la piste, le·la Pivot Bleu·e accroche accidentellement le patin de le·la Bloqueur·se Bleu·e, qui tombe.</flowPara><flowPara
           id="flowPara2489" /></flowRoot>
      <text
         inkscape:export-ydpi="98.57"
         inkscape:export-xdpi="98.57"
         inkscape:export-filename="/home/isabelle/Documents/website/blog/static/img/derby_casebook/legende.png"
         id="text9509-6"
         y="455.26883"
         x="132.80695"
         style="font-style:normal;font-variant:normal;font-weight:normal;font-stretch:normal;font-size:8.46667px;font-family:Calibri;-inkscape-font-specification:Calibri;fill:#000000;fill-opacity:1;stroke:#00130f;stroke-width:0.1;stroke-dasharray:none;stroke-opacity:1"
         xml:space="preserve"><tspan
           y="455.26883"
           x="132.80695"
           style="fill:#000000;fill-opacity:1;stroke-width:0.1"
           id="tspan9507-7"
           sodipodi:role="line">CHUTE !</tspan></text>
      <path
         sodipodi:nodetypes="csc"
         inkscape:connector-curvature="0"
         id="path2933"
         d="m 171.3882,492.22408 c 0,0 -31.77334,-0.14765 -37.7143,-0.5717 -14.72904,-1.05133 -12.46664,-12.56281 -12.82148,-28.41928"
         style="fill:none;stroke:#000000;stroke-width:1;stroke-linecap:butt;stroke-linejoin:miter;stroke-miterlimit:4;stroke-dasharray:none;stroke-opacity:1;marker-end:url(#marker2943)" />
    </g>
    <g
       id="g4212"
       transform="translate(1.3949933,-69.849987)">
      <g
         transform="translate(0,-1.9772158e-6)"
         id="g4067">
        <path
           transform="rotate(145.0587)"
           d="m 316.00879,-512.23419 a 55.354836,55.354836 0 0 1 -37.36248,-9.63613"
           sodipodi:arc-type="arc"
           sodipodi:open="true"
           sodipodi:end="2.179202"
           sodipodi:start="1.4672078"
           sodipodi:ry="55.354836"
           sodipodi:rx="55.354836"
           sodipodi:cy="-567.2923"
           sodipodi:cx="310.28491"
           sodipodi:type="arc"
           id="path1187-61-1-2-8"
           style="fill:#000000;fill-opacity:0;stroke:#000000;stroke-width:2;stroke-dasharray:none;stroke-opacity:1" />
        <path
           inkscape:connector-curvature="0"
           sodipodi:nodetypes="cc"
           id="path1297-5-1-7-9"
           d="M 69.507985,587.40271 H 193.34674"
           style="fill:#000000;fill-opacity:0;stroke:#000000;stroke-width:2;stroke-dasharray:none;stroke-opacity:1" />
        <path
           sodipodi:open="true"
           transform="rotate(145.0587)"
           d="m 289.37802,-461.42379 a 106.93397,106.93397 0 0 1 -40.73744,-17.17402"
           sodipodi:arc-type="arc"
           sodipodi:end="2.1779809"
           sodipodi:start="1.7615497"
           sodipodi:ry="106.93397"
           sodipodi:rx="106.93397"
           sodipodi:cy="-566.41815"
           sodipodi:cx="309.65256"
           sodipodi:type="arc"
           id="path1187-6-9-9-2-0"
           style="fill:#000000;fill-opacity:0;stroke:#000000;stroke-width:2;stroke-dasharray:none;stroke-opacity:1" />
        <path
           inkscape:connector-curvature="0"
           sodipodi:nodetypes="cc"
           id="path1297-1-7-9-8-6"
           d="m 70.241336,534.73071 123.105404,-0.0314"
           style="fill:#000000;fill-opacity:0;stroke:#000000;stroke-width:2;stroke-dasharray:none;stroke-opacity:1" />
        <g
           id="g11214-74"
           transform="translate(45.606537,353.30206)">
          <path
             inkscape:connector-curvature="0"
             style="color:#000000;fill:#001300;fill-opacity:1;stroke:#00130f;stroke-width:0.1;stroke-dasharray:none;stroke-opacity:1"
             d="m 120.64614,165.51536 c -3.24608,0 -5.89453,2.64649 -5.89453,5.89257 0,3.24608 2.64845,5.89453 5.89453,5.89453 3.24607,0 5.89258,-2.64845 5.89258,-5.89453 0,-3.24608 -2.64651,-5.89257 -5.89258,-5.89257 z m 0,1.5 c 2.43542,0 4.39258,1.95715 4.39258,4.39257 0,2.43542 -1.95716,4.39453 -4.39258,4.39453 -2.43542,0 -4.39453,-1.95911 -4.39453,-4.39453 0,-2.43542 1.95911,-4.39257 4.39453,-4.39257 z"
             id="path7740-6-14-8" />
          <path
             inkscape:connector-curvature="0"
             style="fill:#001300;fill-opacity:1;stroke:#00130f;stroke-width:1;stroke-dasharray:none;stroke-dashoffset:0;stroke-opacity:1"
             d="m 117.88902,167.41674 v 7.90363"
             id="path11204-3" />
          <path
             inkscape:connector-curvature="0"
             style="fill:#001300;fill-opacity:1;stroke:#00130f;stroke-width:1;stroke-dasharray:none;stroke-dashoffset:0;stroke-opacity:1"
             d="m 120.27265,166.47584 v 9.78544"
             id="path11206-91" />
          <path
             inkscape:connector-curvature="0"
             style="fill:#001300;fill-opacity:1;stroke:#00130f;stroke-width:1;stroke-dasharray:none;stroke-dashoffset:0;stroke-opacity:1"
             d="m 122.93455,166.66402 v 9.47181"
             id="path11208-5" />
        </g>
        <g
           transform="translate(-8.56862,474.44402)"
           id="g9349-1-8-3">
          <path
             inkscape:connector-curvature="0"
             id="path7740-8-2-0-7"
             d="m 132.41813,94.093625 c -3.24607,0 -5.89453,2.6465 -5.89453,5.892579 0,3.246076 2.64846,5.894526 5.89453,5.894526 3.24607,0 5.89258,-2.64845 5.89258,-5.894526 0,-3.246079 -2.64651,-5.892579 -5.89258,-5.892579 z m 0,1.5 c 2.43542,0 4.39258,1.957159 4.39258,4.392579 0,2.435416 -1.95716,4.394526 -4.39258,4.394526 -2.43541,0 -4.39453,-1.95911 -4.39453,-4.394526 0,-2.43542 1.95912,-4.392579 4.39453,-4.392579 z"
             style="color:#000000;fill:#df130f;stroke:#00130f;stroke-width:0.1;stroke-dasharray:none;stroke-opacity:1" />
          <g
             transform="translate(16.434531,13.172715)"
             style="fill:#ff0000;fill-opacity:1;stroke:#00130f;stroke-width:0.1;stroke-dasharray:none;stroke-opacity:1"
             id="path7851-3-8-4-3">
            <path
               inkscape:connector-curvature="0"
               sodipodi:nodetypes="ccccc"
               id="path8181-9-8-7-2"
               d="m 116.96852,82.52191 c -0.65594,-0.132015 -1.31925,-0.131336 -1.99609,0.0293 l 0.11517,8.553424 c 0.71007,0.178705 1.3911,0.160102 1.99723,-0.0172 z"
               style="color:#000000;fill:#ff0000;fill-opacity:1;stroke:#00130f;stroke-width:0.1;stroke-dasharray:none;stroke-opacity:1" />
          </g>
        </g>
        <g
           id="path5966-47-6"
           style="fill:#0000ff;fill-opacity:1;stroke:#000000;stroke-width:0.1;stroke-dasharray:none;stroke-opacity:1"
           transform="translate(45.336003,446.7232)"
           inkscape:export-filename="/home/isabelle/Documents/website/blog/static/img/derby_casebook/legende.png"
           inkscape:export-xdpi="98.57"
           inkscape:export-ydpi="98.57">
          <path
             inkscape:connector-curvature="0"
             style="color:#000000;fill:#0000ff;fill-opacity:1;stroke:#000000;stroke-width:0.1;stroke-dasharray:none;stroke-opacity:1"
             d="m 97.980469,97.732422 c -3.246076,0 -5.894532,2.646498 -5.894532,5.892578 0,3.24608 2.648456,5.89453 5.894532,5.89453 3.246071,0 5.892581,-2.64845 5.892581,-5.89453 0,-3.24608 -2.64651,-5.892578 -5.892581,-5.892578 z"
             id="path7740-5-5"
             sodipodi:nodetypes="sssss" />
        </g>
        <g
           transform="translate(36.852956,455.9905)"
           id="g9356-9-6-2">
          <g
             transform="translate(18.065853,-16.811511)"
             style="stroke-width:0.1;stroke-dasharray:none"
             id="path5966-9-4-8-6">
            <path
               inkscape:connector-curvature="0"
               id="path7738-7-2-9-5"
               d="m 103.12354,103.62536 a 5.1436315,5.1436315 0 0 1 -5.143628,5.14363 5.1436315,5.1436315 0 0 1 -5.143632,-5.14363 5.1436315,5.1436315 0 0 1 5.143632,-5.143633 5.1436315,5.1436315 0 0 1 5.143628,5.143633 z"
               style="color:#000000;fill:#ffffff;fill-opacity:0.58173104;stroke-width:0.1;stroke-dasharray:none" />
            <path
               inkscape:connector-curvature="0"
               id="path7740-2-2-0-8"
               d="m 97.980469,97.732422 c -3.246076,0 -5.894532,2.646498 -5.894532,5.892578 0,3.24608 2.648456,5.89453 5.894532,5.89453 3.246071,0 5.892581,-2.64845 5.892581,-5.89453 0,-3.24608 -2.64651,-5.892578 -5.892581,-5.892578 z m 0,1.5 c 2.435421,0 4.392581,1.957158 4.392581,4.392578 0,2.43542 -1.95716,4.39453 -4.392581,4.39453 -2.435417,0 -4.394532,-1.95911 -4.394532,-4.39453 0,-2.43542 1.959115,-4.392578 4.394532,-4.392578 z"
               style="color:#000000;fill:#0013ff;fill-opacity:1;stroke:#00130f;stroke-width:0.1;stroke-dasharray:none;stroke-opacity:1" />
          </g>
          <g
             style="stroke:#00130f;stroke-width:0.1;stroke-dasharray:none;stroke-opacity:1"
             id="path7851-6-6-7">
            <path
               inkscape:connector-curvature="0"
               sodipodi:nodetypes="ccccc"
               id="path8181-4-8-9"
               d="m 116.96852,82.52191 c -0.65594,-0.132015 -1.31925,-0.131336 -1.99609,0.0293 l 0.11517,8.553424 c 0.71007,0.178705 1.3911,0.160102 1.99723,-0.0172 z"
               style="color:#000000;fill:#0013ff;fill-opacity:1;stroke:#00130f;stroke-width:0.1;stroke-dasharray:none;stroke-opacity:1" />
          </g>
        </g>
        <text
           xml:space="preserve"
           style="font-style:normal;font-variant:normal;font-weight:normal;font-stretch:normal;font-size:6.35px;font-family:Calibri;-inkscape-font-specification:Calibri;white-space:pre;display:inline;fill:#001300;fill-opacity:1;stroke:none;stroke-width:1;stroke-dasharray:none;stroke-dashoffset:0;stroke-opacity:1"
           x="24.053522"
           y="571.71472"
           id="text20627-8"><tspan
             style="stroke-width:1"
             x="24.053522"
             y="571.71472"
             id="tspan70546" /></text>
      </g>
      <flowRoot
         transform="matrix(0.26458333,0,0,0.26458333,7.6018124,13.860525)"
         style="font-style:normal;font-variant:normal;font-weight:normal;font-stretch:normal;font-size:24px;line-height:1.25;font-family:Calibri;-inkscape-font-specification:Calibri;letter-spacing:0px;word-spacing:0px;fill:#000000;fill-opacity:1;stroke:none"
         id="flowRoot4069"
         xml:space="preserve"><flowRegion
           id="flowRegion4071"><rect
             y="2048.2891"
             x="61.640602"
             height="114.74653"
             width="258.89053"
             id="rect4073" /></flowRegion><flowPara
           id="flowPara4075">Le·la Pivot Rouge retourne sur la piste devant les deux Patineur·ses.</flowPara><flowPara
           id="flowPara4077" /></flowRoot>
    </g>
    <path
       style="fill:#000000;fill-opacity:1;stroke:#00130f;stroke-width:0.5;stroke-dasharray:1.50000002, 1.50000002;stroke-dashoffset:0;stroke-opacity:1"
       d="M 10.084996,542.84609 H 210.21403"
       id="path11050-8-4"
       inkscape:connector-curvature="0" />
    <path
       transform="rotate(145.0587)"
       d="m 333.14685,-539.32318 a 55.354836,55.354836 0 0 1 -37.36248,-9.63613"
       sodipodi:arc-type="arc"
       sodipodi:open="true"
       sodipodi:end="2.179202"
       sodipodi:start="1.4672078"
       sodipodi:ry="55.354836"
       sodipodi:rx="55.354836"
       sodipodi:cy="-594.38129"
       sodipodi:cx="327.42297"
       sodipodi:type="arc"
       id="path1187-61-1-2-8-0"
       style="fill:#000000;fill-opacity:0;stroke:#000000;stroke-width:2;stroke-dasharray:none;stroke-opacity:1" />
    <path
       inkscape:connector-curvature="0"
       sodipodi:nodetypes="cc"
       id="path1297-5-1-7-9-4"
       d="M 70.974292,619.4239 H 194.81305"
       style="fill:#000000;fill-opacity:0;stroke:#000000;stroke-width:2;stroke-dasharray:none;stroke-opacity:1" />
    <path
       sodipodi:open="true"
       transform="rotate(145.0587)"
       d="M 306.51608,-488.51278 A 106.93397,106.93397 0 0 1 265.77864,-505.6868"
       sodipodi:arc-type="arc"
       sodipodi:end="2.1779809"
       sodipodi:start="1.7615497"
       sodipodi:ry="106.93397"
       sodipodi:rx="106.93397"
       sodipodi:cy="-593.50714"
       sodipodi:cx="326.79062"
       sodipodi:type="arc"
       id="path1187-6-9-9-2-0-8"
       style="fill:#000000;fill-opacity:0;stroke:#000000;stroke-width:2;stroke-dasharray:none;stroke-opacity:1" />
    <path
       inkscape:connector-curvature="0"
       sodipodi:nodetypes="cc"
       id="path1297-1-7-9-8-6-7"
       d="M 71.707643,566.7519 194.81305,566.7205"
       style="fill:#000000;fill-opacity:0;stroke:#000000;stroke-width:2;stroke-dasharray:none;stroke-opacity:1" />
    <g
       id="g11214-74-0"
       transform="translate(47.072844,385.32325)">
      <path
         inkscape:connector-curvature="0"
         style="color:#000000;fill:#001300;fill-opacity:1;stroke:#00130f;stroke-width:0.1;stroke-dasharray:none;stroke-opacity:1"
         d="m 120.64614,165.51536 c -3.24608,0 -5.89453,2.64649 -5.89453,5.89257 0,3.24608 2.64845,5.89453 5.89453,5.89453 3.24607,0 5.89258,-2.64845 5.89258,-5.89453 0,-3.24608 -2.64651,-5.89257 -5.89258,-5.89257 z m 0,1.5 c 2.43542,0 4.39258,1.95715 4.39258,4.39257 0,2.43542 -1.95716,4.39453 -4.39258,4.39453 -2.43542,0 -4.39453,-1.95911 -4.39453,-4.39453 0,-2.43542 1.95911,-4.39257 4.39453,-4.39257 z"
         id="path7740-6-14-8-8" />
      <path
         inkscape:connector-curvature="0"
         style="fill:#001300;fill-opacity:1;stroke:#00130f;stroke-width:1;stroke-dasharray:none;stroke-dashoffset:0;stroke-opacity:1"
         d="m 117.88902,167.41674 v 7.90363"
         id="path11204-3-6" />
      <path
         inkscape:connector-curvature="0"
         style="fill:#001300;fill-opacity:1;stroke:#00130f;stroke-width:1;stroke-dasharray:none;stroke-dashoffset:0;stroke-opacity:1"
         d="m 120.27265,166.47584 v 9.78544"
         id="path11206-91-2" />
      <path
         inkscape:connector-curvature="0"
         style="fill:#001300;fill-opacity:1;stroke:#00130f;stroke-width:1;stroke-dasharray:none;stroke-dashoffset:0;stroke-opacity:1"
         d="m 122.93455,166.66402 v 9.47181"
         id="path11208-5-4" />
    </g>
    <g
       transform="translate(-7.1023132,506.46521)"
       id="g9349-1-8-3-7">
      <path
         inkscape:connector-curvature="0"
         id="path7740-8-2-0-7-9"
         d="m 132.41813,94.093625 c -3.24607,0 -5.89453,2.6465 -5.89453,5.892579 0,3.246076 2.64846,5.894526 5.89453,5.894526 3.24607,0 5.89258,-2.64845 5.89258,-5.894526 0,-3.246079 -2.64651,-5.892579 -5.89258,-5.892579 z m 0,1.5 c 2.43542,0 4.39258,1.957159 4.39258,4.392579 0,2.435416 -1.95716,4.394526 -4.39258,4.394526 -2.43541,0 -4.39453,-1.95911 -4.39453,-4.394526 0,-2.43542 1.95912,-4.392579 4.39453,-4.392579 z"
         style="color:#000000;fill:#df130f;stroke:#00130f;stroke-width:0.1;stroke-dasharray:none;stroke-opacity:1" />
      <g
         transform="translate(16.434531,13.172715)"
         style="fill:#ff0000;fill-opacity:1;stroke:#00130f;stroke-width:0.1;stroke-dasharray:none;stroke-opacity:1"
         id="path7851-3-8-4-3-3">
        <path
           inkscape:connector-curvature="0"
           sodipodi:nodetypes="ccccc"
           id="path8181-9-8-7-2-9"
           d="m 116.96852,82.52191 c -0.65594,-0.132015 -1.31925,-0.131336 -1.99609,0.0293 l 0.11517,8.553424 c 0.71007,0.178705 1.3911,0.160102 1.99723,-0.0172 z"
           style="color:#000000;fill:#ff0000;fill-opacity:1;stroke:#00130f;stroke-width:0.1;stroke-dasharray:none;stroke-opacity:1" />
      </g>
    </g>
    <g
       transform="translate(34.159905,470.28759)"
       id="g9356-9-6-2-3">
      <g
         transform="translate(18.065853,-16.811511)"
         style="stroke-width:0.1;stroke-dasharray:none"
         id="path5966-9-4-8-6-0">
        <path
           inkscape:connector-curvature="0"
           id="path7738-7-2-9-5-1"
           d="m 103.12354,103.62536 a 5.1436315,5.1436315 0 0 1 -5.143628,5.14363 5.1436315,5.1436315 0 0 1 -5.143632,-5.14363 5.1436315,5.1436315 0 0 1 5.143632,-5.143633 5.1436315,5.1436315 0 0 1 5.143628,5.143633 z"
           style="color:#000000;fill:#ffffff;fill-opacity:0.58173104;stroke-width:0.1;stroke-dasharray:none" />
        <path
           inkscape:connector-curvature="0"
           id="path7740-2-2-0-8-7"
           d="m 97.980469,97.732422 c -3.246076,0 -5.894532,2.646498 -5.894532,5.892578 0,3.24608 2.648456,5.89453 5.894532,5.89453 3.246071,0 5.892581,-2.64845 5.892581,-5.89453 0,-3.24608 -2.64651,-5.892578 -5.892581,-5.892578 z m 0,1.5 c 2.435421,0 4.392581,1.957158 4.392581,4.392578 0,2.43542 -1.95716,4.39453 -4.392581,4.39453 -2.435417,0 -4.394532,-1.95911 -4.394532,-4.39453 0,-2.43542 1.959115,-4.392578 4.394532,-4.392578 z"
           style="color:#000000;fill:#0013ff;fill-opacity:1;stroke:#00130f;stroke-width:0.1;stroke-dasharray:none;stroke-opacity:1" />
      </g>
      <g
         style="stroke:#00130f;stroke-width:0.1;stroke-dasharray:none;stroke-opacity:1"
         id="path7851-6-6-7-8">
        <path
           inkscape:connector-curvature="0"
           sodipodi:nodetypes="ccccc"
           id="path8181-4-8-9-9"
           d="m 116.96852,82.52191 c -0.65594,-0.132015 -1.31925,-0.131336 -1.99609,0.0293 l 0.11517,8.553424 c 0.71007,0.178705 1.3911,0.160102 1.99723,-0.0172 z"
           style="color:#000000;fill:#0013ff;fill-opacity:1;stroke:#00130f;stroke-width:0.1;stroke-dasharray:none;stroke-opacity:1" />
      </g>
    </g>
    <text
       xml:space="preserve"
       style="font-style:normal;font-variant:normal;font-weight:normal;font-stretch:normal;font-size:6.35px;font-family:Calibri;-inkscape-font-specification:Calibri;white-space:pre;display:inline;fill:#001300;fill-opacity:1;stroke:none;stroke-width:1;stroke-dasharray:none;stroke-dashoffset:0;stroke-opacity:1"
       x="25.519829"
       y="603.73468"
       id="text20627-8-1"><tspan
         style="stroke-width:1"
         x="25.519829"
         y="603.73468"
         id="tspan70546-5" /></text>
    <flowRoot
       xml:space="preserve"
       id="flowRoot4069-4"
       style="font-style:normal;font-variant:normal;font-weight:normal;font-stretch:normal;font-size:24px;line-height:1.25;font-family:Calibri;-inkscape-font-specification:Calibri;letter-spacing:0px;word-spacing:0px;fill:#000000;fill-opacity:1;stroke:none"
       transform="matrix(0.26458333,0,0,0.26458333,9.0681192,51.702541)"><flowRegion
         id="flowRegion4071-9"><rect
           id="rect4073-2"
           width="258.89053"
           height="114.74653"
           x="61.640602"
           y="2048.2891" /></flowRegion><flowPara
         id="flowPara4077-7">Aucune pénalité.</flowPara></flowRoot>
    <g
       id="path5966"
       style="fill:#0000ff;fill-opacity:1;stroke:#000000;stroke-width:0.1;stroke-dasharray:none;stroke-opacity:1"
       transform="translate(45.223144,473.48127)"
       inkscape:export-filename="/home/isabelle/Documents/website/blog/static/img/derby_casebook/legende.png"
       inkscape:export-xdpi="98.57"
       inkscape:export-ydpi="98.57">
      <path
         inkscape:connector-curvature="0"
         style="color:#000000;fill:#0000ff;fill-opacity:1;stroke:#000000;stroke-width:0.1;stroke-dasharray:none;stroke-opacity:1"
         d="m 97.980469,97.732422 c -3.246076,0 -5.894532,2.646498 -5.894532,5.892578 0,3.24608 2.648456,5.89453 5.894532,5.89453 3.246071,0 5.892581,-2.64845 5.892581,-5.89453 0,-3.24608 -2.64651,-5.892578 -5.892581,-5.892578 z m 0,1.5 c 2.435421,0 4.392581,1.957158 4.392581,4.392578 0,2.43542 -1.95716,4.39453 -4.392581,4.39453 -2.435417,0 -4.394532,-1.95911 -4.394532,-4.39453 0,-2.43542 1.959115,-4.392578 4.394532,-4.392578 z"
         id="path7740" />
    </g>
  </g>
</svg>
